<svg width="393" height="427" viewBox="0 0 393 427" fill="none" xmlns="http://www.w3.org/2000/svg">
<rect x="328.75" y="83.75" width="63.5" height="63.5" rx="3.25" fill="white" stroke="#242424" stroke-width="1.5"/>
<rect x="328.75" y="249.75" width="63.5" height="63.5" rx="3.25" fill="white" stroke="#242424" stroke-width="1.5"/>
<rect x="0.75" y="249.75" width="63.5" height="63.5" rx="3.25" fill="white" stroke="#242424" stroke-width="1.5"/>
<rect x="0.75" y="83.75" width="63.5" height="63.5" rx="3.25" fill="white" stroke="#242424" stroke-width="1.5"/>
<rect x="246.75" y="0.75" width="63.5" height="63.5" rx="3.25" fill="white" stroke="#242424" stroke-width="1.5"/>
<rect x="82.75" y="0.75" width="63.5" height="63.5" rx="3.25" fill="white" stroke="#242424" stroke-width="1.5"/>
<rect x="246.75" y="332.75" width="63.5" height="63.5" rx="3.25" fill="white" stroke="#242424" stroke-width="1.5"/>
<rect x="82.75" y="332.75" width="63.5" height="63.5" rx="3.25" fill="white" stroke="#242424" stroke-width="1.5"/>
<rect x="164.75" y="249.75" width="63.5" height="63.5" rx="3.25" fill="white" stroke="#242424" stroke-width="1.5"/>
<rect x="246.75" y="166.75" width="63.5" height="63.5" rx="3.25" fill="white" stroke="#242424" stroke-width="1.5"/>
<rect x="82.75" y="166.75" width="63.5" height="63.5" rx="3.25" fill="white" stroke="#242424" stroke-width="1.5"/>
<rect x="164.75" y="83.75" width="63.5" height="63.5" rx="3.25" fill="white" stroke="#242424" stroke-width="1.5"/>
<rect x="194.75" y="29.75" width="63.5" height="63.5" rx="3.25" fill="white" stroke="#242424" stroke-width="1.5"/>
<rect x="112.75" y="29.75" width="63.5" height="63.5" rx="3.25" fill="white" stroke="#242424" stroke-width="1.5"/>
<rect x="30.75" y="29.75" width="63.5" height="63.5" rx="3.25" fill="white" stroke="#242424" stroke-width="1.5"/>
<rect x="276.75" y="29.75" width="63.5" height="63.5" rx="3.25" fill="white" stroke="#242424" stroke-width="1.5"/>
<rect x="0.75" y="0.75" width="63.5" height="63.5" rx="3.25" fill="white" stroke="#242424" stroke-width="1.5"/>
<path d="M24.2257 35.3094C21.1977 35.3094 18.6868 37.8203 18.6868 40.8483C18.6868 43.8762 21.1977 46.3872 24.2257 46.3872C27.2536 46.3872 29.7646 43.8762 29.7646 40.8483C29.7646 37.8203 27.3275 35.3094 24.2257 35.3094ZM24.2257 45.6487C21.567 45.6487 19.4253 43.507 19.4253 40.8483C19.4253 38.1896 21.567 36.0479 24.2257 36.0479C26.8844 36.0479 29.0261 38.1896 29.0261 40.8483C29.0261 43.507 26.8844 45.6487 24.2257 45.6487Z" fill="black" fill-opacity="0.7"/>
<path d="M31.7584 36.1955L33.457 33.9061L30.9461 31.3951L28.5828 33.0937C27.9181 32.7245 27.1796 32.4291 26.3672 32.2075L25.9241 29.3273H22.5269L22.0838 32.2075C21.3453 32.4291 20.6068 32.7245 19.8683 33.0937L17.505 31.3951L14.994 33.9061L16.6926 36.1955C16.2495 36.8602 15.9541 37.6726 15.7325 38.4849L13 38.9281V42.473L15.6587 42.9161C15.8802 43.7284 16.1756 44.5408 16.6188 45.3532L15.0679 47.4949L17.5788 50.0059L19.6467 48.455C20.4591 48.972 21.2714 49.2674 22.1577 49.4889L22.5269 51.926H26.0718L26.4411 49.4151C27.3273 49.1935 28.1397 48.8242 28.9521 48.3811L31.0199 49.932L33.5309 47.421L31.98 45.2793C32.4231 44.5408 32.7185 43.7284 32.9401 42.8422L35.5988 42.3991V38.8542L32.8662 38.4111C32.5708 37.6726 32.2016 36.934 31.7584 36.1955ZM34.7864 41.8083L32.2754 42.1776L32.2016 42.3991C31.98 43.3592 31.6846 44.2454 31.1676 45.0578L31.0199 45.2793L32.497 47.2733L30.8722 48.8981L28.8782 47.421L28.6567 47.5688C27.8443 48.0857 26.8842 48.5288 25.9241 48.7504L25.7026 48.8242L25.3333 51.2614H23.1177L22.7485 48.8242L22.5269 48.7504C21.5669 48.5288 20.6068 48.1596 19.7944 47.5688L19.5728 47.421L17.5788 48.8981L15.9541 47.2733L17.4311 45.2793L17.2834 45.0578C16.7665 44.2454 16.3972 43.3592 16.2495 42.3991L16.1756 42.1776L13.6647 41.8083V39.5927L16.3233 39.2235L16.3972 39.0019C16.6188 38.1157 16.988 37.3033 17.505 36.4909L17.6527 36.2694L16.0279 34.0538L17.6527 32.4291L19.8683 34.0538L20.0898 33.9061C20.8283 33.463 21.6407 33.0937 22.5269 32.946L22.7485 32.8722L23.1916 30.1396H25.4072L25.8503 32.8722L26.0718 32.946C26.9581 33.1676 27.7704 33.463 28.509 33.9061L28.7305 34.0538L30.9461 32.4291L32.5708 34.0538L30.9461 36.2694L31.0938 36.4909C31.6107 37.2295 31.98 38.1157 32.2016 39.0019L32.2754 39.2235L34.9341 39.5927V41.8083H34.7864Z" fill="black" fill-opacity="0.7"/>
<path d="M42.0979 29.3273C41.064 29.3273 40.1039 29.7704 39.3654 30.5089C38.6268 31.2474 38.2576 32.2075 38.2576 33.2414C38.2576 34.2754 38.7007 35.2354 39.4392 35.974C40.1777 36.7125 41.1378 37.0817 42.1717 37.0817C43.2057 37.0817 44.1657 36.6386 44.9043 35.9001C45.6428 35.1616 46.012 34.2015 46.012 33.1676C46.012 32.1337 45.5689 31.1736 44.8304 30.4351C44.1657 29.7704 43.1318 29.3273 42.0979 29.3273ZM44.3873 35.457C43.7965 36.0478 42.9841 36.4171 42.1717 36.4171C41.3594 36.4171 40.547 36.1217 39.9562 35.5309C39.3654 34.94 38.9961 34.1277 38.9961 33.3153C38.9961 32.5029 39.2915 31.6905 39.8823 31.0997C40.4731 30.5089 41.2855 30.1396 42.0979 30.1396C42.9103 30.1396 43.7226 30.4351 44.3134 31.0259C44.9043 31.6167 45.2735 32.4291 45.2735 33.2414C45.2735 34.0538 44.9781 34.8662 44.3873 35.457Z" fill="black" fill-opacity="0.7"/>
<path d="M48.0799 34.7185L50 34.4231V31.8383L48.006 31.5429C47.8583 31.0997 47.7106 30.5828 47.4152 30.2135L48.5969 28.5888L46.7505 26.7425L45.1258 27.9241C44.6827 27.7025 44.2396 27.481 43.7965 27.3333L43.5011 25.3393H40.9162L40.6208 27.2594C40.1039 27.4071 39.6607 27.5548 39.1438 27.8502L37.5929 26.7425L35.7466 28.5888L36.8544 30.0658C36.559 30.5089 36.3374 31.0259 36.1897 31.6167L34.4172 31.9121V34.4969L36.1897 34.7924C36.3374 35.3832 36.559 35.9001 36.8544 36.4171L35.8204 37.8203L37.6667 39.6666L39.0699 38.6327C39.5869 38.9281 40.1039 39.1496 40.6947 39.2973L40.9901 41.0698H43.5749L43.8703 39.2235C44.3873 39.0758 44.9042 38.8542 45.4212 38.5588L46.8983 39.6666L48.7446 37.8203L47.5629 36.2694C47.7106 35.7524 47.9322 35.2355 48.0799 34.7185ZM47.6368 37.6726L46.6767 38.6327L45.2735 37.5987L45.0519 37.7464C44.535 38.1157 43.9442 38.3373 43.2795 38.485L43.0579 38.5588L42.8364 40.2574H41.507L41.2855 38.6327L41.0639 38.5588C40.3993 38.4111 39.8084 38.1895 39.2176 37.8203L38.9961 37.6726L37.6667 38.6327L36.7067 37.6726L37.6667 36.3432L37.519 36.1217C37.1498 35.5309 36.9282 34.9401 36.7805 34.2754L36.7067 34.0538L35.0819 33.8323V32.5029L36.7805 32.2814L36.8544 32.0598C37.0021 31.3952 37.2236 30.8043 37.5929 30.2874L37.7406 30.0658L36.7067 28.6626L37.6667 27.7025L39.0699 28.7365L39.2915 28.5888C39.8084 28.2934 40.3993 28.0718 40.9901 27.9241L41.2116 27.8502L41.507 26.0778H42.8364L43.1318 27.9241L43.3533 27.998C43.9442 28.1457 44.4611 28.3672 44.9781 28.6626L45.1996 28.8103L46.6767 27.7025L47.6368 28.6626L46.529 30.2135L46.6767 30.4351C46.9721 30.952 47.1937 31.469 47.3414 32.0598L47.4152 32.2814L49.2615 32.5768V33.9061L47.4891 34.2015L47.4152 34.4231C47.2675 35.0139 47.046 35.6047 46.7505 36.1217L46.6028 36.3432L47.6368 37.6726Z" fill="black" fill-opacity="0.7"/>
<path d="M22.5273 21.2036V23.7146L24.2259 23.9361C24.3736 24.4531 24.5952 24.97 24.8168 25.4132L23.8567 26.7425L25.6291 28.5149L26.9585 27.5549C27.4016 27.8503 27.9186 27.998 28.4355 28.1457L28.7309 29.8443H31.2419L31.4635 28.1457C31.9804 27.998 32.4235 27.7764 32.8666 27.5549L34.2698 28.5888L36.0423 26.8163L34.9345 25.3393C35.1561 24.8962 35.3776 24.4531 35.4515 24.01L37.2978 23.7146V21.2036L35.3776 20.9082C35.2299 20.4651 35.0822 20.0219 34.8607 19.6527L35.9684 18.1018L34.196 16.3293L32.6451 17.4371C32.2758 17.2156 31.8327 16.994 31.3896 16.9202L31.0942 15H28.5832L28.2878 16.8463C27.8447 16.994 27.4016 17.1417 26.9585 17.3633L25.4814 16.2555L23.709 18.0279L24.7429 19.4311C24.4475 19.8742 24.2998 20.3174 24.1521 20.8343L22.5273 21.2036ZM24.8906 21.3513C25.0383 20.7605 25.2599 20.1696 25.6291 19.7265L25.7768 19.505L24.8168 18.1756L25.703 17.2894L27.0323 18.2495L27.2539 18.1018C27.7708 17.8064 28.2878 17.5848 28.8048 17.4371L29.0263 17.3633L29.2479 15.6647H30.5034L30.7988 17.4371L31.0203 17.511C31.5373 17.6587 32.0543 17.8802 32.5712 18.1756L32.7928 18.3233L34.196 17.2894L35.0822 18.1756L34.0483 19.5788L34.196 19.8004C34.4914 20.2435 34.7129 20.7605 34.8607 21.3513L34.9345 21.5728L36.707 21.8683V23.1237L35.0084 23.4191L34.9345 23.6407C34.7868 24.2315 34.6391 24.7485 34.3437 25.2654L34.196 25.487L35.2299 26.8163L34.3437 27.7026L33.0143 26.7425L32.7928 26.8902C32.2758 27.2595 31.7589 27.481 31.168 27.6287L30.9465 27.7026L30.7249 29.2535H29.4694L29.2479 27.7026L29.0263 27.6287C28.4355 27.481 27.8447 27.2595 27.3277 26.964L27.1062 26.8163L25.8507 27.7026L24.9645 26.8163L25.8507 25.5609L25.703 25.3393C25.3337 24.8223 25.1122 24.2315 24.9645 23.6407L24.8906 23.4191L23.3397 23.1976V21.9421L24.8906 21.7206V21.3513Z" fill="black" fill-opacity="0.7"/>
<path d="M29.8382 26.2255C29.912 26.2255 29.912 26.2255 29.8382 26.2255C30.8721 26.2255 31.7583 25.8563 32.4969 25.1178C33.9739 23.6407 33.9001 21.2775 32.4969 19.8743C31.7583 19.2096 30.8721 18.7665 29.912 18.7665C28.952 18.7665 27.9919 19.1357 27.2534 19.8743C25.7763 21.3513 25.8502 23.7146 27.2534 25.1178C27.918 25.8563 28.8781 26.2255 29.8382 26.2255ZM27.7703 20.3912C28.3611 19.8004 29.0997 19.505 29.912 19.505C30.7244 19.505 31.4629 19.8004 31.9799 20.3912C33.1615 21.5729 33.1615 23.4192 31.9799 24.6008C31.3891 25.1916 30.6506 25.487 29.8382 25.487C29.0258 25.487 28.2873 25.1916 27.6965 24.6008C26.5887 23.493 26.5887 21.5729 27.7703 20.3912Z" fill="black" fill-opacity="0.7"/>
<rect x="112.75" y="112.75" width="63.5" height="63.5" rx="3.25" fill="white" stroke="#242424" stroke-width="1.5"/>
<rect x="30.75" y="112.75" width="63.5" height="63.5" rx="3.25" fill="white" stroke="#242424" stroke-width="1.5"/>
<rect x="112.75" y="196.75" width="63.5" height="63.5" rx="3.25" fill="white" stroke="#242424" stroke-width="1.5"/>
<rect x="30.75" y="196.75" width="63.5" height="63.5" rx="3.25" fill="white" stroke="#242424" stroke-width="1.5"/>
<rect x="112.75" y="279.75" width="63.5" height="63.5" rx="3.25" fill="white" stroke="#242424" stroke-width="1.5"/>
<rect x="112.75" y="362.75" width="63.5" height="63.5" rx="3.25" fill="white" stroke="#242424" stroke-width="1.5"/>
<rect x="30.75" y="279.75" width="63.5" height="63.5" rx="3.25" fill="white" stroke="#242424" stroke-width="1.5"/>
<rect x="30.75" y="362.75" width="63.5" height="63.5" rx="3.25" fill="white" stroke="#242424" stroke-width="1.5"/>
<rect x="194.75" y="112.75" width="63.5" height="63.5" rx="3.25" fill="white" stroke="#242424" stroke-width="1.5"/>
<rect x="276.75" y="112.75" width="63.5" height="63.5" rx="3.25" fill="white" stroke="#242424" stroke-width="1.5"/>
<rect x="194.75" y="196.75" width="63.5" height="63.5" rx="3.25" fill="white" stroke="#242424" stroke-width="1.5"/>
<rect x="194.75" y="279.75" width="63.5" height="63.5" rx="3.25" fill="white" stroke="#242424" stroke-width="1.5"/>
<rect x="194.75" y="362.75" width="63.5" height="63.5" rx="3.25" fill="white" stroke="#242424" stroke-width="1.5"/>
<rect x="276.75" y="196.75" width="63.5" height="63.5" rx="3.25" fill="white" stroke="#242424" stroke-width="1.5"/>
<rect x="276.75" y="279.75" width="63.5" height="63.5" rx="3.25" fill="white" stroke="#242424" stroke-width="1.5"/>
<rect x="276.75" y="362.75" width="63.5" height="63.5" rx="3.25" fill="white" stroke="#242424" stroke-width="1.5"/>
<rect x="82.75" y="83.75" width="63.5" height="63.5" rx="3.25" fill="white" stroke="#242424" stroke-width="1.5"/>
<rect x="246.75" y="83.75" width="63.5" height="63.5" rx="3.25" fill="white" stroke="#242424" stroke-width="1.5"/>
<rect x="164.75" y="332.75" width="63.5" height="63.5" rx="3.25" fill="white" stroke="#242424" stroke-width="1.5"/>
<mask id="mask0_141_16928" style="mask-type:alpha" maskUnits="userSpaceOnUse" x="179" y="347" width="35" height="35">
<rect x="179" y="347" width="35" height="35" fill="#D9D9D9"/>
</mask>
<g mask="url(#mask0_141_16928)">
<path d="M196.479 377.623C193.833 377.623 191.187 377.624 188.541 377.623C186.296 377.621 184.841 376.218 184.835 374.049C184.833 373.213 184.832 372.377 184.836 371.541C184.84 370.942 185.185 370.566 185.712 370.566C186.239 370.566 186.583 370.942 186.587 371.542C186.593 372.392 186.585 373.242 186.59 374.092C186.595 375.221 187.273 375.902 188.43 375.903C193.808 375.91 199.186 375.91 204.564 375.903C205.723 375.902 206.402 375.221 206.407 374.093C206.412 373.243 206.405 372.393 206.41 371.543C206.413 370.943 206.756 370.567 207.282 370.566C207.81 370.565 208.156 370.94 208.159 371.539C208.165 372.444 208.173 373.35 208.157 374.256C208.124 376.191 206.637 377.614 204.631 377.62C201.913 377.629 199.197 377.623 196.479 377.623Z" fill="black" fill-opacity="0.7"/>
<path d="M195.62 370.403C195.62 370.183 195.62 370.036 195.62 369.888C195.62 366.712 195.62 363.536 195.62 360.36C195.62 360.193 195.612 360.024 195.636 359.86C195.696 359.448 196.087 359.141 196.515 359.15C196.93 359.159 197.296 359.458 197.356 359.855C197.38 360.02 197.372 360.189 197.372 360.356C197.373 363.532 197.373 366.708 197.373 369.884C197.373 370.032 197.373 370.181 197.373 370.427C197.615 370.232 197.786 370.095 197.956 369.955C199.555 368.638 201.152 367.32 202.753 366.006C203.127 365.699 203.513 365.658 203.861 365.872C204.202 366.083 204.363 366.408 204.241 366.768C204.158 367.014 203.957 367.249 203.749 367.422C201.656 369.164 199.549 370.892 197.447 372.624C197.337 372.715 197.232 372.811 197.122 372.899C196.711 373.227 196.273 373.233 195.874 372.904C193.63 371.055 191.387 369.204 189.146 367.351C188.663 366.951 188.58 366.43 188.927 366.038C189.272 365.646 189.805 365.649 190.299 366.054C191.956 367.413 193.608 368.776 195.264 370.136C195.358 370.213 195.458 370.282 195.62 370.403Z" fill="black" fill-opacity="0.7"/>
<path d="M197.369 356.127C197.365 356.601 196.973 356.975 196.488 356.97C196.002 356.964 195.621 356.583 195.626 356.109C195.63 355.63 196.012 355.268 196.507 355.272C197.002 355.276 197.374 355.645 197.369 356.127Z" fill="black" fill-opacity="0.7"/>
<path d="M197.369 352.229C197.368 352.706 196.987 353.076 196.495 353.075C196.002 353.074 195.624 352.703 195.625 352.225C195.627 351.754 196.017 351.373 196.5 351.375C196.984 351.376 197.371 351.756 197.369 352.229Z" fill="black" fill-opacity="0.7"/>
</g>
<rect x="0.75" y="166.75" width="63.5" height="63.5" rx="3.25" fill="white" stroke="#242424" stroke-width="1.5"/>
<path d="M25.9271 202.494L17.2833 199.069L25.9271 195.807V193.687L15 198.09V200.21L25.9271 204.451V202.494Z" fill="#010101" fill-opacity="0.7"/>
<path d="M37.0172 187H34.897L26.9055 210.159H29.0257L37.0172 187Z" fill="#010101" fill-opacity="0.7"/>
<path d="M48.7597 198.09L37.8325 193.687V195.807L46.4764 199.069L37.8325 202.494V204.451L48.7597 200.21V198.09Z" fill="#010101" fill-opacity="0.7"/>
<rect x="82.75" y="249.75" width="63.5" height="63.5" rx="3.25" fill="white" stroke="#242424" stroke-width="1.5"/>
<path d="M111.745 260C105.058 260 98 261.486 98 264.235V273.671V273.745V283.181V283.255V292.765C98 295.514 105.058 297 111.745 297C118.432 297 125.49 295.514 125.49 292.765V283.255V283.181V273.745V273.671V264.235C125.416 261.486 118.357 260 111.745 260ZM111.745 260.743C119.398 260.743 124.747 262.6 124.747 264.235C124.747 265.869 119.398 267.727 111.745 267.727C104.092 267.727 98.743 265.869 98.743 264.235C98.743 262.6 104.092 260.743 111.745 260.743ZM98.743 275.157C100.749 276.94 106.396 277.906 111.745 277.906C117.094 277.906 122.741 276.94 124.747 275.157V283.181C124.747 284.815 119.398 286.673 111.745 286.673C104.092 286.673 98.743 284.815 98.743 283.181V275.157ZM111.745 296.257C104.092 296.257 98.743 294.4 98.743 292.765V284.592C100.749 286.376 106.396 287.341 111.745 287.341C117.094 287.341 122.741 286.376 124.747 284.592V292.765C124.673 294.4 119.398 296.257 111.745 296.257ZM124.673 273.745C124.673 275.38 119.323 277.237 111.671 277.237C104.018 277.237 98.6687 275.38 98.6687 273.745V273.671V265.647C100.675 267.43 106.321 268.396 111.671 268.396C117.02 268.396 122.667 267.43 124.673 265.647V273.745Z" fill="#010101" fill-opacity="0.7"/>
<path d="M120.512 270.179C119.843 270.179 119.249 270.699 119.249 271.442C119.249 272.185 119.769 272.705 120.512 272.705C121.181 272.705 121.775 272.185 121.775 271.442C121.775 270.699 121.181 270.179 120.512 270.179Z" fill="#010101" fill-opacity="0.7"/>
<path d="M120.512 282.512C121.181 282.512 121.775 281.992 121.775 281.249C121.775 280.58 121.255 279.986 120.512 279.986C119.843 279.986 119.249 280.506 119.249 281.249C119.249 281.992 119.769 282.512 120.512 282.512Z" fill="#010101" fill-opacity="0.7"/>
<path d="M120.512 289.793C119.843 289.793 119.249 290.313 119.249 291.056C119.249 291.799 119.769 292.319 120.512 292.319C121.181 292.319 121.775 291.799 121.775 291.056C121.775 290.313 121.181 289.793 120.512 289.793Z" fill="#010101" fill-opacity="0.7"/>
<rect x="246.75" y="249.75" width="63.5" height="63.5" rx="3.25" fill="white" stroke="#242424" stroke-width="1.5"/>
<path d="M285.905 288.179V280.976H276.728V274.821H284.083V265H269.243V274.821H276.077V280.976H267.095V288.179H260V298H274.84V288.179H267.746V281.631H276.077H276.402H285.254V288.179H278.16V298H293V288.179H285.905ZM269.893 265.655H283.432V274.167H269.893V265.655ZM274.189 297.345H260.651V288.833H274.189V297.345ZM292.349 297.345H278.811V288.833H292.349V297.345Z" fill="#010101" fill-opacity="0.7"/>
<rect x="328.75" y="0.75" width="63.5" height="63.5" rx="3.25" fill="white" stroke="#242424" stroke-width="1.5"/>
<rect x="164.75" y="166.75" width="63.5" height="63.5" rx="3.25" fill="white" stroke="#3F51B5" stroke-width="1.5"/>
<rect x="164.75" y="0.75" width="63.5" height="63.5" rx="3.25" fill="white" stroke="#242424" stroke-width="1.5"/>
<path d="M189.879 32.0221H181.911V47.4507H189.879V32.0221ZM189.155 46.7263H182.636V32.7464H189.155V46.7263Z" fill="#010101" fill-opacity="0.7"/>
<path d="M212.117 16.8833H204.149V47.4507H212.117V16.8833ZM211.392 46.7264H204.873V17.6077H211.392V46.7264Z" fill="#010101" fill-opacity="0.7"/>
<path d="M201.034 24.4164H193.066V47.4506H201.034V24.4164ZM200.31 46.7263H193.791V25.1408H200.31V46.7263Z" fill="#010101" fill-opacity="0.7"/>
<path d="M178.724 50.2757V15H178V51H214.579V50.2757H178.724Z" fill="#010101" fill-opacity="0.7"/>
<rect x="0.75" y="332.75" width="63.5" height="63.5" rx="3.25" fill="white" stroke="#242424" stroke-width="1.5"/>
<rect x="328.75" y="166.75" width="63.5" height="63.5" rx="3.25" fill="white" stroke="#242424" stroke-width="1.5"/>
<rect x="328.75" y="332.75" width="63.5" height="63.5" rx="3.25" fill="white" stroke="#242424" stroke-width="1.5"/>
<path d="M355.46 370.49L349.552 364.582L347.541 366.58L355.46 374.499L372.46 357.499L370.462 355.501L355.46 370.49Z" fill="black" fill-opacity="0.7"/>
<path d="M212.109 189.926C212.109 193.541 212.109 204.734 212.109 208.28C212.109 209.74 211.761 211.061 210.994 212.242C210.367 213.216 209.461 213.981 208.415 214.467C207.3 215.023 206.185 215.162 205 215.162C201.514 215.162 198.099 215.162 194.474 215.162C194.892 214.745 195.241 214.398 195.59 213.981C196.356 213.216 204.024 205.429 204.93 204.595C205.557 204.039 205.975 203.344 205.836 202.44C205.557 200.841 203.815 200.215 202.63 201.119C202.002 201.605 201.514 202.162 200.957 202.718C200.329 203.344 192.035 211.686 191.338 212.312C190.85 212.799 190.362 213.355 189.804 213.772C189.316 214.12 188.828 214.467 188.271 214.676C187.016 215.232 185.692 215.301 184.367 215.023C182.694 214.676 181.37 213.772 180.324 212.382C179.418 211.13 179 209.74 179 208.21C179 202.37 179 194.306 179 188.396C179 184.433 182.834 182 185.413 182C186.667 182 194.683 182 196.705 182C194.962 183.738 193.777 185.059 193.01 185.754C191.616 187.284 186.877 192.15 185.831 193.193C185.064 193.958 185.064 195.418 185.901 196.113C186.946 196.947 187.922 196.808 188.759 196.044C190.292 194.514 191.826 192.915 193.359 191.386C194.823 189.926 196.287 188.535 197.681 187.075C198.657 186.102 199.632 185.059 200.608 184.086C202.281 182.556 203.884 182.209 205.418 182.417C207.927 182.626 212.109 185.754 212.109 189.926ZM185.134 206.959C185.273 207.306 185.343 207.654 185.552 208.002C186.11 208.975 187.504 209.323 188.41 208.627C188.689 208.419 204.093 192.985 204.93 192.22C205.766 191.455 206.254 190.343 205.488 189.23C204.79 188.188 203.327 188.048 202.421 188.883C201.445 189.856 187.295 203.969 186.11 205.151C185.622 205.707 185.204 206.194 185.134 206.959Z" fill="#3F51B5"/>
<path d="M31.5471 347C31.733 347 31.918 347 32.104 347C32.2788 347.108 32.4573 347.211 32.6283 347.324C38.0401 350.915 43.4528 354.505 48.8553 358.107C49.1584 358.309 49.3806 358.632 49.64 358.9C49.64 359.086 49.64 359.271 49.64 359.457C49.3797 359.724 49.151 360.033 48.8544 360.25C48.2287 360.708 47.5677 361.117 46.9225 361.547C46.7059 361.691 46.492 361.837 46.2475 362.002C47.1447 362.598 48.0149 363.151 48.8544 363.746C49.1538 363.958 49.3806 364.271 49.64 364.538C49.64 364.724 49.64 364.909 49.64 365.095C49.3797 365.362 49.151 365.67 48.8544 365.888C48.2287 366.345 47.5677 366.754 46.9225 367.185C46.7059 367.329 46.492 367.475 46.2475 367.639C47.1447 368.235 48.0149 368.788 48.8544 369.383C49.1538 369.595 49.3806 369.909 49.64 370.176C49.64 370.362 49.64 370.547 49.64 370.732C49.3797 370.999 49.1556 371.321 48.8535 371.526C46.9439 372.818 45.0166 374.084 43.0949 375.36C39.5899 377.687 36.084 380.011 32.5837 382.344C32.1114 382.66 31.6633 382.738 31.1678 382.408C25.6277 378.726 20.0848 375.048 14.5447 371.366C13.8149 370.88 13.8242 370.029 14.5521 369.535C15.07 369.185 15.5953 368.843 16.1159 368.497C16.5361 368.217 16.9564 367.935 17.4082 367.633C16.4432 366.992 15.5163 366.381 14.5921 365.763C13.8065 365.238 13.8047 364.397 14.5884 363.873C15.4168 363.319 16.2498 362.772 17.08 362.221C17.1804 362.155 17.2752 362.081 17.398 361.991C16.4636 361.37 15.5665 360.774 14.6702 360.179C13.7824 359.588 13.7758 358.778 14.6553 358.194C18.1306 355.885 21.6049 353.575 25.0819 351.269C27.2361 349.841 29.393 348.422 31.5471 347ZM16.9564 359.171C17.0847 359.264 17.1646 359.327 17.2492 359.383C22.026 362.555 26.8047 365.725 31.5768 368.905C31.7795 369.039 31.906 369.013 32.0928 368.889C36.8575 365.719 41.626 362.555 46.3935 359.388C46.4855 359.327 46.5711 359.256 46.6798 359.174C46.5683 359.094 46.4874 359.031 46.4028 358.975C41.626 355.801 36.8473 352.631 32.0752 349.452C31.8697 349.315 31.7423 349.347 31.5592 349.468C28.0877 351.781 24.6124 354.086 21.1382 356.393C19.7603 357.309 18.3807 358.224 16.9564 359.171ZM16.9471 364.812C17.1228 364.932 17.2362 365.011 17.3515 365.087C22.0716 368.221 26.7935 371.354 31.509 374.495C31.747 374.654 31.9032 374.656 32.1421 374.496C36.626 371.508 41.1156 368.529 45.6051 365.548C45.9584 365.314 46.3098 365.076 46.7031 364.812C45.9974 364.343 45.328 363.912 44.6763 363.455C44.4448 363.292 44.284 363.286 44.0404 363.448C40.2231 365.995 36.3955 368.525 32.5781 371.071C32.0566 371.419 31.5945 371.422 31.0729 371.072C29.0053 369.682 26.9255 368.311 24.8504 366.933C23.084 365.76 21.3185 364.586 19.5474 363.419C19.4489 363.354 19.2648 363.291 19.1904 363.338C18.4495 363.808 17.7234 364.299 16.9471 364.812ZM46.7068 370.452C45.9863 369.972 45.315 369.54 44.6615 369.082C44.4383 368.926 44.2868 368.921 44.0534 369.078C40.2463 371.618 36.4317 374.147 32.6181 376.678C31.971 377.107 31.6819 377.105 31.033 376.674C27.2296 374.149 23.4234 371.628 19.6265 369.093C19.3699 368.922 19.2053 368.929 18.9608 369.105C18.3965 369.51 17.8061 369.878 17.2269 370.264C17.1451 370.319 17.0707 370.384 16.974 370.459C17.0763 370.533 17.1479 370.588 17.2232 370.639C22.0102 373.818 26.7991 376.996 31.5824 380.183C31.7897 380.321 31.918 380.28 32.0993 380.159C36.0255 377.546 39.9553 374.939 43.8842 372.331C44.8093 371.717 45.7325 371.101 46.7068 370.452Z" fill="black" fill-opacity="0.7"/>
<path d="M41.6221 359.497C41.5933 359.894 41.4325 360.217 41.0699 360.403C40.6878 360.599 40.3094 360.565 39.9505 360.327C38.86 359.603 37.7694 358.88 36.6798 358.155C35.1458 357.137 33.609 356.121 32.0815 355.092C31.8826 354.958 31.7543 354.972 31.5646 355.099C28.9828 356.822 26.3964 358.538 23.8081 360.251C23.6556 360.351 23.4883 360.449 23.3135 360.493C22.8105 360.618 22.3039 360.354 22.1133 359.896C21.9115 359.41 22.0668 358.91 22.54 358.595C24.8633 357.047 27.1894 355.505 29.5146 353.961C30.0548 353.602 30.6005 353.251 31.1342 352.882C31.5888 352.569 32.0285 352.559 32.4897 352.865C35.3541 354.77 38.2203 356.673 41.0875 358.573C41.4232 358.796 41.6017 359.099 41.6221 359.497Z" fill="black" fill-opacity="0.7"/>
<path d="M26.272 362.311C26.2934 361.942 26.444 361.64 26.7545 361.433C28.2485 360.439 29.7425 359.446 31.2403 358.458C31.627 358.203 32.0287 358.206 32.4145 358.46C33.902 359.442 35.3905 360.424 36.8706 361.418C37.3958 361.77 37.5223 362.39 37.2043 362.877C36.8771 363.377 36.2458 363.498 35.7084 363.145C34.4989 362.35 33.2921 361.552 32.0947 360.739C31.8855 360.598 31.7498 360.612 31.5499 360.747C30.3506 361.556 29.142 362.352 27.9352 363.151C27.5782 363.387 27.2035 363.428 26.8196 363.219C26.4644 363.024 26.2989 362.709 26.272 362.311Z" fill="black" fill-opacity="0.7"/>
<path d="M295.631 111.569C295.584 112.169 295.537 112.767 295.491 113.367C295.272 116.257 294.785 119.091 293.726 121.803C292.087 126 289.25 129.116 285.237 131.161C284.868 131.348 284.579 131.296 284.418 131.013C284.252 130.719 284.368 130.434 284.76 130.233C286.793 129.186 288.585 127.835 290.049 126.066C291.711 124.058 292.777 121.749 293.465 119.254C294.254 116.396 294.575 113.469 294.564 110.518C294.555 108.121 294.391 105.724 294.294 103.327C294.289 103.203 294.259 103.079 294.24 102.947C293.496 103.097 292.778 103.27 292.051 103.383C288.368 103.958 284.791 103.68 281.423 101.946C280.767 101.608 280.139 101.2 279.541 100.767C278.942 100.333 278.398 99.825 277.793 99.3211C277.729 99.3806 277.638 99.4615 277.551 99.5461C275.205 101.803 272.393 103.08 269.182 103.492C268.357 103.598 267.519 103.611 266.686 103.645C266.25 103.664 266.006 103.455 266.01 103.125C266.015 102.802 266.262 102.601 266.698 102.606C268.713 102.624 270.667 102.316 272.546 101.569C274.341 100.856 275.893 99.785 277.226 98.3923C277.353 98.2603 277.48 98.1311 277.607 98C277.747 98 277.885 98 278.025 98C278.744 98.6508 279.414 99.3667 280.189 99.9412C283.392 102.312 287.045 102.915 290.91 102.475C292.122 102.336 293.311 101.995 294.509 101.735C294.909 101.648 295.165 101.797 295.231 102.201C295.249 102.316 295.265 102.431 295.274 102.546C295.354 103.621 295.432 104.696 295.509 105.77C295.553 106.381 295.592 106.992 295.632 107.603C295.631 108.925 295.631 110.247 295.631 111.569Z" fill="black" fill-opacity="0.7"/>
<path d="M264.597 107.052C264.58 107.326 264.557 107.578 264.55 107.831C264.46 110.839 264.56 113.837 265.153 116.798C265.672 119.385 266.568 121.812 268.284 123.871C269.671 125.536 271.4 126.756 273.392 127.559C274.751 128.107 276.174 128.496 277.57 128.948C277.696 128.989 277.849 128.997 277.977 128.967C280.427 128.39 282.776 127.563 284.872 126.123C287.504 124.316 289.09 121.782 289.992 118.771C290.537 116.954 290.82 115.091 290.972 113.203C290.981 113.088 290.987 112.972 291.005 112.858C291.06 112.527 291.279 112.327 291.557 112.346C291.855 112.367 292.06 112.61 292.034 112.956C291.99 113.546 291.941 114.135 291.87 114.722C291.612 116.869 291.15 118.966 290.31 120.969C288.726 124.746 285.919 127.257 282.164 128.732C280.822 129.259 279.409 129.604 278.027 130.026C277.921 130.059 277.793 130.073 277.687 130.048C275.25 129.483 272.898 128.699 270.756 127.367C267.719 125.481 265.807 122.751 264.739 119.384C264.006 117.07 263.651 114.688 263.564 112.273C263.498 110.432 263.547 108.587 263.554 106.745C263.557 106.014 263.746 105.879 264.47 105.955C267.725 106.294 270.901 105.997 273.957 104.754C275.165 104.263 276.295 103.631 277.355 102.874C277.765 102.582 277.871 102.58 278.285 102.874C281.927 105.462 286.016 106.33 290.408 106.023C290.755 105.999 291.101 105.954 291.448 105.935C291.845 105.913 292.063 106.103 292.075 106.505C292.108 107.71 292.132 108.916 292.151 110.121C292.156 110.494 291.936 110.731 291.626 110.727C291.318 110.723 291.112 110.486 291.111 110.109C291.108 109.102 291.11 108.094 291.11 107.036C290.854 107.048 290.673 107.053 290.493 107.066C287.472 107.282 284.523 106.959 281.678 105.876C280.45 105.409 279.282 104.82 278.202 104.072C277.926 103.881 277.747 103.863 277.451 104.063C275.024 105.701 272.336 106.637 269.433 106.979C267.942 107.155 266.45 107.173 264.955 107.053C264.85 107.045 264.746 107.052 264.597 107.052Z" fill="black" fill-opacity="0.7"/>
<path d="M261.379 102.923C261.316 103.713 261.244 104.483 261.194 105.254C261.043 107.628 260.981 110.003 261.114 112.38C261.297 115.66 261.797 118.875 263.085 121.927C264.851 126.113 267.912 128.99 272.043 130.788C273.845 131.572 275.715 132.132 277.636 132.524C277.829 132.564 278.052 132.535 278.245 132.48C279.614 132.092 280.978 131.689 282.344 131.293C282.465 131.257 282.595 131.212 282.714 131.226C282.972 131.256 283.139 131.42 283.164 131.681C283.194 131.979 283.028 132.164 282.755 132.249C281.651 132.594 280.535 132.905 279.444 133.285C278.27 133.694 277.146 133.547 275.98 133.231C273.52 132.563 271.149 131.7 268.97 130.356C265.223 128.045 262.806 124.713 261.462 120.559C260.684 118.153 260.301 115.675 260.122 113.16C259.863 109.539 260.046 105.93 260.394 102.326C260.449 101.758 260.695 101.628 261.243 101.764C262.151 101.991 263.068 102.187 263.982 102.39C264.328 102.467 264.534 102.689 264.5 102.977C264.464 103.291 264.212 103.462 263.839 103.429C263.804 103.426 263.769 103.423 263.735 103.416C263.044 103.273 262.353 103.128 261.661 102.984C261.582 102.966 261.505 102.95 261.379 102.923Z" fill="black" fill-opacity="0.7"/>
<path d="M274.513 113.489C274.513 112.807 274.504 112.183 274.515 111.559C274.545 109.907 275.54 108.64 277.087 108.271C278.999 107.816 280.942 109.208 281.092 111.165C281.14 111.8 281.116 112.439 281.124 113.077C281.126 113.201 281.124 113.325 281.124 113.489C281.608 113.489 282.046 113.49 282.485 113.489C282.79 113.488 282.989 113.627 283.075 113.924C283.516 115.456 283.878 117.008 283.779 118.611C283.731 119.376 283.589 120.159 283.334 120.881C282.831 122.306 281.771 123.222 280.333 123.651C278.613 124.165 276.878 124.16 275.164 123.607C274.152 123.28 273.329 122.679 272.744 121.777C272.566 121.504 272.62 121.2 272.855 121.036C273.089 120.872 273.409 120.916 273.588 121.18C274.293 122.215 275.317 122.679 276.508 122.866C277.563 123.031 278.613 123.009 279.652 122.764C281.397 122.353 282.449 121.15 282.681 119.338C282.882 117.766 282.609 116.245 282.219 114.733C282.164 114.521 282.034 114.533 281.882 114.533C280.989 114.533 280.096 114.533 279.203 114.533C277.428 114.533 275.653 114.543 273.879 114.524C273.541 114.52 273.427 114.632 273.354 114.945C273.032 116.315 272.777 117.688 272.927 119.108C272.964 119.46 272.765 119.699 272.462 119.725C272.147 119.753 271.93 119.56 271.893 119.209C271.701 117.374 272.073 115.611 272.583 113.867C272.663 113.592 272.874 113.493 273.143 113.492C273.581 113.488 274.02 113.489 274.513 113.489ZM275.62 113.458C277.085 113.458 278.57 113.458 280.062 113.458C280.062 112.713 280.102 111.994 280.052 111.281C279.974 110.147 279.077 109.313 277.926 109.234C276.875 109.161 275.807 109.892 275.644 110.965C275.52 111.774 275.62 112.618 275.62 113.458Z" fill="black" fill-opacity="0.7"/>
<path d="M276.258 117.978C276.254 117.249 276.782 116.595 277.487 116.451C278.236 116.299 278.988 116.699 279.269 117.401C279.546 118.091 279.303 118.906 278.655 119.286C278.391 119.44 278.305 119.609 278.336 119.89C278.351 120.026 278.341 120.17 278.312 120.304C278.257 120.565 278.081 120.7 277.815 120.7C277.55 120.699 277.309 120.556 277.331 120.304C277.384 119.709 277.119 119.36 276.673 119.003C276.411 118.793 276.329 118.357 276.166 118.023C276.198 118.008 276.229 117.993 276.258 117.978ZM278.332 117.99C278.334 117.704 278.125 117.483 277.841 117.472C277.538 117.46 277.309 117.677 277.306 117.977C277.303 118.269 277.543 118.51 277.829 118.504C278.102 118.497 278.328 118.265 278.332 117.99Z" fill="black" fill-opacity="0.7"/>
<path d="M289.237 108.362C289.535 108.365 289.76 108.601 289.747 108.898C289.734 109.171 289.496 109.4 289.226 109.397C288.94 109.394 288.709 109.145 288.72 108.853C288.732 108.567 288.951 108.36 289.237 108.362Z" fill="black" fill-opacity="0.7"/>
<path d="M278.331 127.015C278.328 127.314 278.097 127.533 277.795 127.522C277.51 127.512 277.303 127.294 277.305 127.006C277.307 126.725 277.526 126.5 277.804 126.493C278.095 126.485 278.333 126.722 278.331 127.015Z" fill="black" fill-opacity="0.7"/>
<path d="M266.415 108.362C266.712 108.368 266.932 108.605 266.916 108.904C266.902 109.179 266.663 109.403 266.392 109.396C266.107 109.389 265.877 109.137 265.892 108.846C265.906 108.561 266.127 108.357 266.415 108.362Z" fill="black" fill-opacity="0.7"/>
<path d="M278.332 106.183C278.341 106.47 278.136 106.695 277.852 106.711C277.549 106.729 277.315 106.519 277.306 106.219C277.297 105.923 277.526 105.683 277.817 105.683C278.094 105.683 278.322 105.906 278.332 106.183Z" fill="black" fill-opacity="0.7"/>
<path d="M359.883 55.2525C359.052 55.0466 358.207 54.8292 357.579 54.2185C357.101 53.7536 356.728 53.1809 356.298 52.6647C356.177 52.5189 356.04 52.3448 355.874 52.2838C354.606 51.8242 353.88 50.8211 353.874 49.4635C353.869 48.2111 353.863 46.9596 353.876 45.7073C353.891 44.3683 353.36 43.3174 352.276 42.537C349.993 40.894 348.342 38.7622 347.29 36.1532C345.205 30.9828 346.535 24.7625 350.561 20.9223C350.915 20.5838 351.287 20.552 351.574 20.8339C351.861 21.1158 351.832 21.5233 351.472 21.8812C349.638 23.7054 348.367 25.8628 347.911 28.4082C346.984 33.5874 348.586 37.8881 352.699 41.1759C353.92 42.1517 354.898 43.2034 355.149 44.8402C355.326 44.8402 355.484 44.8402 355.642 44.8402C357.277 44.8402 358.912 44.8402 360.547 44.8402C360.651 44.8402 360.754 44.8358 360.857 44.842C361.31 44.8659 361.579 45.116 361.578 45.5093C361.577 45.9079 361.313 46.1571 360.851 46.1589C359.364 46.1651 357.876 46.1616 356.388 46.1616C356.008 46.1616 355.629 46.1616 355.216 46.1616C355.216 47.4051 355.172 48.6097 355.233 49.8091C355.269 50.5338 355.939 51.08 356.699 51.0844C359.232 51.1004 361.766 51.1021 364.299 51.0836C365.131 51.0774 365.775 50.4437 365.794 49.635C365.819 48.5019 365.8 47.368 365.8 46.1616C365.381 46.1616 364.975 46.1616 364.569 46.1616C364.289 46.1616 364.01 46.1642 363.73 46.1607C363.215 46.1545 362.911 45.9035 362.918 45.496C362.925 45.0948 363.236 44.8455 363.751 44.842C364.44 44.8376 365.13 44.8411 365.849 44.8411C366.101 43.161 367.094 42.0421 368.4 41.107C369.004 40.6739 369.56 40.1436 370.046 39.578C373.325 35.751 374.282 31.3832 372.573 26.6477C370.872 21.9342 367.384 19.1414 362.425 18.3062C359.327 17.7838 356.429 18.4502 353.752 20.0818C353.701 20.1127 353.653 20.1454 353.601 20.1737C353.209 20.3884 352.836 20.3186 352.635 19.9934C352.43 19.6593 352.523 19.2987 352.909 19.0503C354.105 18.2805 355.389 17.7043 356.762 17.3313C364.748 15.1624 372.914 20.164 374.41 28.3013C375.436 33.8835 373.599 38.5342 369.224 42.164C368.974 42.3708 368.703 42.5503 368.455 42.758C367.605 43.4677 367.147 44.3771 367.134 45.4872C367.119 46.7829 367.132 48.0795 367.129 49.376C367.126 50.8326 366.443 51.8003 365.086 52.297C364.962 52.3421 364.818 52.4358 364.763 52.5472C364.029 54.0223 362.86 54.9087 361.237 55.1951C361.196 55.2022 361.159 55.2349 361.121 55.2552C360.707 55.2525 360.295 55.2525 359.883 55.2525ZM357.687 52.4367C358.557 53.5521 359.605 54.0505 360.908 53.8985C361.888 53.7845 362.69 53.3232 363.275 52.4367C361.398 52.4367 359.594 52.4367 357.687 52.4367Z" fill="black" fill-opacity="0.7"/>
<path d="M360.766 10.0009C361.085 10.2448 361.174 10.5701 361.168 10.9625C361.151 12.0664 361.163 13.1711 361.161 14.275C361.161 14.4218 361.194 14.6144 361.117 14.7046C360.951 14.8999 360.743 15.1315 360.515 15.1836C360.207 15.2543 359.89 15.0369 359.883 14.7108C359.854 13.3002 359.861 11.8878 359.89 10.4764C359.894 10.3155 360.116 10.1582 360.236 10C360.413 10.0009 360.59 10.0009 360.766 10.0009Z" fill="black" fill-opacity="0.7"/>
<path d="M355.054 23.907C355.253 24.0086 355.419 24.0696 355.558 24.1686C355.941 24.4417 356.303 24.7466 356.696 25.0047C356.812 25.0807 357.011 25.0789 357.159 25.0506C358.045 24.8792 358.466 24.3436 358.402 23.4306C358.39 23.2582 358.444 23.0806 358.475 22.9074C358.547 22.5043 358.777 22.2825 359.2 22.2834C360.069 22.2843 360.938 22.2834 361.806 22.2834C362.231 22.2834 362.459 22.5132 362.524 22.9144C362.59 23.321 362.678 23.7284 362.691 24.1376C362.703 24.5301 362.922 24.6344 363.227 24.8147C363.901 25.2106 364.369 25.0312 364.926 24.5734C365.967 23.7196 365.995 23.7532 366.935 24.6936C367.362 25.1205 367.792 25.5438 368.216 25.9751C368.591 26.3587 368.608 26.6238 368.287 27.0631C368.017 27.4316 367.724 27.7843 367.475 28.1652C367.398 28.2828 367.39 28.4772 367.417 28.6239C367.58 29.5466 368.173 29.9161 369.075 29.8851C369.248 29.879 369.424 29.9329 369.598 29.9594C369.998 30.0195 370.196 30.2723 370.202 30.6558C370.215 31.5246 370.213 32.3934 370.204 33.2622C370.199 33.6688 369.988 33.9216 369.572 33.9825C369.077 34.0559 368.58 34.1186 368.09 34.2176C367.966 34.2433 367.838 34.3696 367.759 34.4828C367.221 35.249 367.367 35.9296 368.034 36.5438C368.161 36.6614 368.253 36.8205 368.355 36.9645C368.581 37.2871 368.566 37.6018 368.289 37.8837C367.669 38.513 367.046 39.1396 366.414 39.7565C366.133 40.0305 365.814 40.0429 365.495 39.806C365.106 39.5161 364.728 39.2068 364.322 38.9443C364.195 38.8621 363.989 38.8904 363.819 38.8948C363.737 38.8966 363.66 38.9797 363.576 38.992C362.804 39.1052 362.675 39.6478 362.614 40.3063C362.49 41.6417 362.457 41.6488 361.113 41.6488C360.494 41.6488 359.875 41.6532 359.257 41.647C358.75 41.6426 358.543 41.4544 358.468 40.9497C358.446 40.8039 358.395 40.6572 358.404 40.514C358.457 39.6151 358.071 39.0495 357.171 38.8869C357.01 38.8577 356.799 38.8674 356.67 38.9514C356.275 39.2068 355.909 39.5064 355.532 39.7884C355.183 40.05 354.855 40.027 354.546 39.7168C353.953 39.1228 353.353 38.5351 352.765 37.9367C352.408 37.5744 352.397 37.3083 352.707 36.8841C352.984 36.5041 353.284 36.1382 353.545 35.7475C353.616 35.6415 353.583 35.4665 353.597 35.3233C353.597 35.3109 353.58 35.2977 353.578 35.2844C353.411 34.3051 352.743 34.0267 351.855 34.0409C351.71 34.0435 351.565 34.002 351.419 33.9799C351.001 33.918 350.801 33.6582 350.797 33.2516C350.79 32.3978 350.79 31.5432 350.797 30.6894C350.801 30.2608 351.018 30.0071 351.457 29.9488C351.938 29.8843 352.421 29.825 352.895 29.7252C353.029 29.6969 353.142 29.5396 353.251 29.4273C353.298 29.3787 353.292 29.2833 353.335 29.2267C353.816 28.5815 353.536 28.0883 353.093 27.543C352.25 26.5072 352.276 26.4851 353.229 25.5332C353.656 25.1063 354.076 24.6715 354.516 24.2587C354.664 24.1138 354.867 24.0254 355.054 23.907ZM359.716 23.6277C359.646 24.1306 359.576 24.6096 359.514 25.0895C359.463 25.4793 359.269 25.7108 358.879 25.8408C358.338 26.022 357.811 26.2491 357.296 26.4957C356.95 26.6618 356.659 26.6601 356.356 26.4214C355.963 26.1139 355.559 25.8222 355.186 25.542C354.796 25.915 354.428 26.265 354.047 26.6291C354.361 27.0472 354.669 27.4582 354.978 27.8683C355.174 28.1281 355.19 28.3924 355.057 28.6946C354.8 29.27 354.557 29.8516 354.331 30.4402C354.212 30.7495 354.018 30.9201 353.69 30.9599C353.267 31.0111 352.841 31.058 352.426 31.1499C352.306 31.1764 352.144 31.3487 352.133 31.4663C352.097 31.8737 352.119 32.2856 352.119 32.7337C352.634 32.8124 353.123 32.9078 353.616 32.9573C354.048 33.0006 354.248 33.2384 354.381 33.6281C354.557 34.1399 354.764 34.6445 355.005 35.1288C355.194 35.5062 355.185 35.8173 354.92 36.1461C354.617 36.5226 354.337 36.9177 354.07 37.2748C354.449 37.6601 354.805 38.0225 355.173 38.3981C355.544 38.1223 355.932 37.8554 356.296 37.5576C356.635 37.2783 356.951 37.2562 357.346 37.463C357.811 37.707 358.302 37.9226 358.805 38.0702C359.275 38.2081 359.483 38.4776 359.529 38.9425C359.573 39.3933 359.653 39.8405 359.72 40.301C360.253 40.301 360.762 40.301 361.287 40.301C361.356 39.7981 361.426 39.319 361.489 38.8391C361.539 38.4476 361.737 38.2213 362.128 38.0941C362.656 37.9217 363.175 37.707 363.67 37.456C364.05 37.2642 364.356 37.2756 364.684 37.5408C365.06 37.8439 365.456 38.1215 365.799 38.3778C366.193 38.0022 366.56 37.6522 366.942 37.288C366.648 36.8956 366.354 36.4917 366.048 36.0975C365.823 35.8094 365.808 35.5319 365.965 35.1978C366.219 34.6542 366.45 34.0974 366.657 33.5336C366.777 33.2065 366.963 33.0156 367.313 32.9741C367.736 32.9237 368.161 32.876 368.576 32.7823C368.697 32.7558 368.859 32.5843 368.87 32.4668C368.906 32.0593 368.884 31.6466 368.884 31.1958C368.37 31.1172 367.88 31.0261 367.386 30.9731C366.98 30.9298 366.767 30.7257 366.635 30.3456C366.446 29.8074 366.224 29.278 365.977 28.7627C365.811 28.4162 365.816 28.1263 366.056 27.8232C366.364 27.4316 366.655 27.0269 366.937 26.6495C366.559 26.2677 366.201 25.9079 365.829 25.5323C365.435 25.8266 365.031 26.1192 364.637 26.4267C364.331 26.6654 364.04 26.6565 363.696 26.4895C363.196 26.2464 362.685 26.0096 362.155 25.8461C361.72 25.7117 361.529 25.459 361.479 25.0347C361.425 24.5698 361.35 24.1076 361.282 23.6259C360.762 23.6277 360.266 23.6277 359.716 23.6277Z" fill="black" fill-opacity="0.7"/>
<path d="M342.59 31.1348C341.972 31.1348 341.355 31.141 340.737 31.1322C340.289 31.126 340.004 30.8661 340 30.4861C339.996 30.1052 340.278 29.8188 340.72 29.8144C341.97 29.802 343.22 29.8029 344.47 29.8135C344.918 29.817 345.201 30.0901 345.208 30.4693C345.214 30.8644 344.919 31.1269 344.442 31.1322C343.824 31.1401 343.207 31.1348 342.59 31.1348Z" fill="black" fill-opacity="0.7"/>
<path d="M378.398 31.1348C377.781 31.1348 377.164 31.1401 376.546 31.133C376.091 31.1277 375.808 30.882 375.794 30.502C375.78 30.1034 376.069 29.8179 376.541 29.8135C377.776 29.8038 379.012 29.8038 380.246 29.8135C380.717 29.817 381.012 30.1034 380.999 30.4976C380.988 30.8741 380.7 31.1268 380.251 31.1321C379.634 31.1401 379.016 31.1348 378.398 31.1348Z" fill="black" fill-opacity="0.7"/>
<path d="M375.276 16.4104C375.133 16.6569 375.064 16.8585 374.93 16.9946C374.067 17.8757 373.193 18.7472 372.313 19.6133C371.971 19.9509 371.583 19.9589 371.302 19.6619C371.034 19.3773 371.05 19.0167 371.378 18.6862C372.256 17.798 373.128 16.9044 374.04 16.0506C374.205 15.896 374.558 15.835 374.789 15.8889C374.973 15.9322 375.103 16.2141 375.276 16.4104Z" fill="black" fill-opacity="0.7"/>
<path d="M349.942 19.2633C349.813 19.4312 349.71 19.699 349.533 19.7609C349.32 19.8369 348.955 19.8343 348.812 19.6999C347.838 18.7852 346.895 17.8377 345.967 16.8761C345.714 16.6145 345.744 16.2672 346.014 16.0038C346.281 15.7422 346.623 15.7148 346.888 15.9693C347.848 16.8982 348.787 17.8501 349.724 18.8028C349.818 18.9009 349.848 19.0609 349.942 19.2633Z" fill="black" fill-opacity="0.7"/>
<path d="M366.701 13.614C367.307 13.6104 367.619 14.0002 367.477 14.4589C367.321 14.9609 367.12 15.4523 366.903 15.9322C366.75 16.269 366.355 16.3953 366.043 16.2345C365.714 16.0648 365.578 15.7846 365.706 15.4258C365.878 14.9432 366.046 14.4545 366.274 13.9975C366.37 13.8058 366.614 13.6882 366.701 13.614Z" fill="black" fill-opacity="0.7"/>
<path d="M354.542 16.2937C354.443 16.2107 354.189 16.0869 354.083 15.8845C353.859 15.4585 353.701 14.9963 353.54 14.5402C353.4 14.1425 353.553 13.7881 353.887 13.6529C354.245 13.5079 354.597 13.6652 354.77 14.0762C354.959 14.5217 355.144 14.9698 355.293 15.4294C355.44 15.8854 355.148 16.2831 354.542 16.2937Z" fill="black" fill-opacity="0.7"/>
<path d="M375.284 25.4236C375.083 25.2159 374.844 25.0612 374.741 24.842C374.615 24.5716 374.713 24.2569 375 24.1252C375.519 23.8893 376.054 23.6807 376.597 23.5092C376.892 23.4164 377.145 23.5755 377.286 23.8566C377.427 24.1411 377.396 24.4673 377.135 24.6069C376.571 24.9074 375.966 25.1293 375.284 25.4236Z" fill="black" fill-opacity="0.7"/>
<path d="M344.237 23.3846C344.921 23.6806 345.532 23.8972 346.082 24.2162C346.227 24.3002 346.296 24.7589 346.202 24.9463C346.108 25.1319 345.732 25.3272 345.537 25.2795C344.987 25.146 344.443 24.9339 343.949 24.659C343.779 24.5645 343.661 24.1721 343.707 23.9564C343.752 23.7461 344.037 23.5861 344.237 23.3846Z" fill="black" fill-opacity="0.7"/>
<path d="M360.459 36.253C358.118 36.2371 356.193 34.2945 356.202 31.9576C356.213 29.5916 358.152 27.6693 360.52 27.6782C362.882 27.6861 364.829 29.6517 364.796 31.9974C364.764 34.3775 362.836 36.2689 360.459 36.253ZM360.513 34.9273C362.137 34.9229 363.463 33.5998 363.472 31.9762C363.481 30.342 362.132 28.9995 360.489 29.0039C358.868 29.0083 357.537 30.3358 357.529 31.9568C357.519 33.5901 358.868 34.9317 360.513 34.9273Z" fill="black" fill-opacity="0.7"/>
<path d="M112.073 123.334C110.614 123.334 109.155 123.343 107.697 123.332C106.181 123.321 105.036 122.478 104.686 121.117C104.614 120.838 104.581 120.541 104.58 120.253C104.572 117.419 104.572 114.587 104.577 111.754C104.58 109.981 105.765 108.697 107.533 108.672C110.56 108.63 113.588 108.63 116.614 108.672C118.357 108.696 119.55 109.938 119.564 111.681C119.588 114.55 119.586 117.42 119.565 120.29C119.552 122.105 118.295 123.315 116.449 123.331C114.991 123.344 113.532 123.334 112.073 123.334ZM112.06 122.203C113.531 122.203 115.001 122.204 116.472 122.203C117.681 122.201 118.438 121.458 118.439 120.257C118.443 117.412 118.443 114.568 118.439 111.723C118.437 110.539 117.681 109.787 116.5 109.786C113.547 109.784 110.593 109.784 107.64 109.786C106.478 109.787 105.713 110.531 105.709 111.694C105.699 114.563 105.699 117.431 105.709 120.301C105.713 121.457 106.486 122.2 107.648 122.202C109.119 122.205 110.589 122.203 112.06 122.203Z" fill="black" fill-opacity="0.7"/>
<path d="M122.318 113.201C122.014 113.201 121.709 113.212 121.407 113.198C121.04 113.182 120.81 112.96 120.805 112.644C120.8 112.313 121.039 112.081 121.426 112.074C121.997 112.063 122.568 112.059 123.139 112.076C123.38 112.083 123.498 112.015 123.591 111.78C124.01 110.737 125.049 110.181 126.154 110.38C127.16 110.56 127.955 111.472 127.998 112.497C128.045 113.63 127.359 114.572 126.279 114.859C125.197 115.145 124.046 114.592 123.614 113.54C123.502 113.266 123.367 113.169 123.083 113.196C122.83 113.22 122.573 113.201 122.318 113.201C122.318 113.202 122.318 113.202 122.318 113.201ZM125.709 111.464C125.055 111.465 124.536 111.991 124.542 112.649C124.547 113.29 125.059 113.804 125.697 113.809C126.351 113.815 126.886 113.292 126.89 112.642C126.894 111.994 126.362 111.463 125.709 111.464Z" fill="black" fill-opacity="0.7"/>
<path d="M96 119.34C96.02 118.262 96.7705 117.331 97.8134 117.105C98.8902 116.873 99.986 117.424 100.405 118.451C100.519 118.73 100.662 118.803 100.939 118.792C101.473 118.771 102.009 118.781 102.544 118.788C102.963 118.794 103.21 119.008 103.212 119.349C103.214 119.689 102.966 119.909 102.551 119.915C101.992 119.922 101.432 119.93 100.873 119.911C100.629 119.903 100.517 119.98 100.424 120.213C100.045 121.158 99.1377 121.713 98.1477 121.638C97.1277 121.561 96.3184 120.879 96.0758 119.88C96.0319 119.704 96.024 119.52 96 119.34ZM99.474 119.365C99.479 118.705 98.964 118.181 98.3074 118.18C97.6587 118.179 97.1227 118.714 97.1267 119.359C97.1307 119.992 97.6497 120.515 98.2834 120.523C98.9451 120.532 99.469 120.022 99.474 119.365Z" fill="black" fill-opacity="0.7"/>
<path d="M115.933 126.357C115.933 126.43 115.94 126.504 115.932 126.576C115.87 127.122 115.964 127.49 116.567 127.779C117.506 128.228 117.87 129.387 117.557 130.386C117.239 131.4 116.309 132.035 115.214 131.985C114.209 131.939 113.31 131.16 113.115 130.164C112.911 129.127 113.401 128.076 114.363 127.655C114.736 127.492 114.834 127.301 114.808 126.927C114.775 126.443 114.795 125.955 114.802 125.469C114.808 125.047 115.017 124.8 115.355 124.793C115.707 124.786 115.924 125.041 115.932 125.482C115.937 125.774 115.932 126.065 115.933 126.357ZM116.538 129.709C116.542 129.05 116.025 128.53 115.366 128.53C114.726 128.53 114.205 129.038 114.193 129.673C114.182 130.327 114.699 130.867 115.347 130.877C115.997 130.888 116.534 130.36 116.538 129.709Z" fill="black" fill-opacity="0.7"/>
<path d="M108.085 105.659C108.085 105.622 108.082 105.586 108.085 105.549C108.151 104.937 108.077 104.496 107.385 104.16C106.454 103.707 106.136 102.508 106.483 101.524C106.838 100.516 107.81 99.9117 108.919 100.011C109.878 100.095 110.747 100.907 110.908 101.869C111.087 102.934 110.56 103.974 109.584 104.375C109.277 104.501 109.195 104.651 109.21 104.96C109.235 105.482 109.223 106.004 109.215 106.527C109.209 106.948 108.993 107.194 108.654 107.197C108.313 107.199 108.1 106.951 108.084 106.535C108.084 106.523 108.084 106.511 108.084 106.498C108.085 106.219 108.085 105.94 108.085 105.659ZM109.823 102.3C109.828 101.647 109.302 101.112 108.654 101.11C108.022 101.108 107.491 101.628 107.479 102.259C107.467 102.922 107.974 103.45 108.63 103.459C109.292 103.468 109.818 102.957 109.823 102.3Z" fill="black" fill-opacity="0.7"/>
<path d="M114.679 105.668C114.679 105.583 114.67 105.497 114.68 105.414C114.745 104.866 114.643 104.501 114.043 104.215C113.094 103.763 112.724 102.58 113.05 101.578C113.384 100.55 114.359 99.9207 115.481 100.009C116.501 100.088 117.342 100.909 117.509 101.986C117.664 102.998 117.085 104.025 116.101 104.403C115.837 104.503 115.789 104.64 115.795 104.883C115.808 105.429 115.802 105.976 115.798 106.521C115.794 106.939 115.585 107.191 115.247 107.197C114.903 107.203 114.695 106.964 114.68 106.542C114.679 106.518 114.679 106.493 114.679 106.47C114.679 106.202 114.679 105.935 114.679 105.668ZM115.239 103.459C115.901 103.457 116.411 102.941 116.405 102.277C116.4 101.64 115.884 101.119 115.251 101.111C114.612 101.103 114.062 101.643 114.058 102.284C114.054 102.93 114.587 103.461 115.239 103.459Z" fill="black" fill-opacity="0.7"/>
<path d="M101.659 113.326C101.623 113.327 101.586 113.33 101.55 113.326C100.947 113.254 100.52 113.333 100.194 114.011C99.7446 114.944 98.555 115.278 97.57 114.943C96.5561 114.599 95.9423 113.64 96.0241 112.531C96.097 111.549 96.8904 110.688 97.8834 110.512C98.9423 110.325 99.9832 110.844 100.385 111.825C100.519 112.15 100.684 112.222 100.996 112.208C101.517 112.185 102.04 112.197 102.562 112.204C102.954 112.209 103.2 112.42 103.212 112.744C103.225 113.088 102.985 113.311 102.568 113.324C102.267 113.333 101.963 113.325 101.659 113.326ZM98.3225 111.597C97.6698 111.59 97.1309 112.113 97.1269 112.759C97.1229 113.402 97.6638 113.945 98.3055 113.945C98.9413 113.945 99.4622 113.432 99.4732 112.794C99.4862 112.127 98.9822 111.604 98.3225 111.597Z" fill="black" fill-opacity="0.7"/>
<path d="M122.342 118.663C122.378 118.663 122.415 118.659 122.451 118.663C123.065 118.733 123.502 118.65 123.836 117.961C124.288 117.03 125.485 116.708 126.465 117.052C127.48 117.409 128.083 118.367 127.99 119.476C127.908 120.47 127.104 121.313 126.076 121.483C125.047 121.654 124.015 121.113 123.621 120.145C123.504 119.856 123.366 119.768 123.071 119.78C122.538 119.803 122.004 119.79 121.47 119.785C121.056 119.781 120.805 119.563 120.804 119.224C120.803 118.883 121.042 118.676 121.468 118.665C121.759 118.657 122.05 118.663 122.342 118.663ZM125.694 120.391C126.351 120.398 126.885 119.88 126.89 119.231C126.895 118.589 126.354 118.044 125.712 118.044C125.081 118.043 124.553 118.563 124.542 119.196C124.531 119.86 125.036 120.385 125.694 120.391Z" fill="black" fill-opacity="0.7"/>
<path d="M109.338 126.319C109.338 126.403 109.346 126.489 109.337 126.573C109.277 127.118 109.368 127.485 109.972 127.774C110.928 128.231 111.293 129.401 110.967 130.407C110.638 131.423 109.681 132.053 108.574 131.982C107.59 131.919 106.713 131.132 106.531 130.148C106.331 129.073 106.851 128.034 107.847 127.614C108.143 127.489 108.243 127.35 108.225 127.034C108.195 126.501 108.212 125.966 108.219 125.431C108.224 125.04 108.44 124.798 108.767 124.79C109.101 124.783 109.315 125.014 109.336 125.406C109.337 125.43 109.337 125.455 109.337 125.479C109.338 125.76 109.338 126.039 109.338 126.319ZM107.612 129.697C107.611 130.349 108.14 130.881 108.787 130.877C109.431 130.873 109.967 130.329 109.96 129.685C109.952 129.052 109.431 128.535 108.794 128.529C108.134 128.524 107.614 129.039 107.612 129.697Z" fill="black" fill-opacity="0.7"/>
<path d="M113.914 118.642C113.901 118.965 113.759 119.161 113.482 119.24C113.181 119.326 112.95 119.201 112.814 118.936C112.67 118.657 112.547 118.365 112.435 118.07C112.35 117.852 112.231 117.749 111.978 117.754C111.043 117.769 110.106 117.767 109.171 117.755C108.94 117.752 108.815 117.831 108.734 118.043C108.626 118.327 108.503 118.604 108.372 118.878C108.203 119.229 107.913 119.35 107.6 119.214C107.291 119.08 107.157 118.767 107.309 118.421C108.107 116.599 108.915 114.781 109.728 112.965C109.885 112.614 110.183 112.429 110.568 112.425C110.97 112.42 111.277 112.608 111.441 112.973C112.253 114.79 113.055 116.61 113.859 118.43C113.891 118.505 113.901 118.591 113.914 118.642ZM110.57 116.748C110.874 116.748 111.178 116.746 111.482 116.749C111.716 116.751 111.836 116.682 111.721 116.423C111.403 115.701 111.093 114.975 110.772 114.255C110.737 114.177 110.646 114.124 110.581 114.06C110.519 114.127 110.431 114.183 110.396 114.263C110.074 114.983 109.766 115.709 109.447 116.43C109.345 116.662 109.431 116.748 109.658 116.749C109.963 116.748 110.266 116.748 110.57 116.748Z" fill="black" fill-opacity="0.7"/>
<path d="M116.257 115.856C116.257 116.779 116.257 117.703 116.257 118.626C116.257 118.946 116.105 119.205 115.796 119.229C115.592 119.245 115.351 119.112 115.171 118.984C115.083 118.922 115.064 118.72 115.064 118.581C115.057 116.758 115.057 114.935 115.061 113.112C115.062 112.685 115.288 112.429 115.645 112.421C116.013 112.412 116.254 112.678 116.257 113.121C116.261 114.033 116.257 114.944 116.257 115.856Z" fill="black" fill-opacity="0.7"/>
<path d="M376 187.679C375.837 188.276 375.636 188.852 375.212 189.324C374.521 190.091 373.674 190.489 372.639 190.43C372.467 190.421 372.382 190.459 372.303 190.617C370.429 194.403 368.55 198.187 366.665 201.967C366.579 202.141 366.614 202.242 366.72 202.38C367.749 203.714 367.71 205.297 366.626 206.578C365.268 208.182 362.544 207.902 361.522 206.064C360.973 205.077 360.922 204.083 361.372 203.05C361.412 202.958 361.385 202.78 361.319 202.704C359.909 201.091 358.489 199.485 357.064 197.885C357.002 197.815 356.856 197.786 356.754 197.794C356.301 197.829 355.851 197.903 355.399 197.926C355.223 197.935 355.122 197.966 355.032 198.127C353.267 201.25 351.499 204.37 349.722 207.486C349.622 207.661 349.664 207.762 349.762 207.9C351.145 209.848 350.111 212.48 347.786 212.942C346.272 213.244 344.713 212.336 344.183 210.846C343.662 209.379 344.289 207.727 345.635 206.981C346.239 206.647 346.866 206.495 347.555 206.586C347.652 206.599 347.816 206.516 347.865 206.429C349.653 203.295 351.43 200.155 353.216 197.02C353.308 196.858 353.269 196.764 353.177 196.634C352.265 195.349 352.322 193.871 353.327 192.637C354.515 191.18 356.881 191.154 358.095 192.588C358.991 193.647 359.174 194.816 358.622 196.102C358.583 196.195 358.611 196.371 358.676 196.447C360.086 198.061 361.504 199.668 362.931 201.268C362.998 201.342 363.162 201.368 363.275 201.356C363.635 201.319 363.993 201.208 364.35 201.214C364.61 201.218 364.71 201.125 364.812 200.917C365.825 198.863 366.846 196.813 367.865 194.763C368.698 193.086 369.526 191.408 370.367 189.736C370.471 189.531 370.467 189.399 370.317 189.214C369.423 188.107 369.372 186.501 370.176 185.385C371.056 184.165 372.554 183.682 373.914 184.215C375.01 184.646 375.685 185.463 375.941 186.623C375.955 186.682 375.98 186.739 376 186.797C376 187.092 376 187.385 376 187.679ZM372.786 186.16C372.2 186.167 371.741 186.633 371.741 187.225C371.741 187.823 372.227 188.31 372.815 188.301C373.385 188.291 373.867 187.801 373.868 187.228C373.868 186.636 373.381 186.154 372.786 186.16ZM347.192 210.844C347.782 210.846 348.247 210.388 348.256 209.799C348.265 209.199 347.792 208.707 347.202 208.703C346.622 208.7 346.123 209.205 346.13 209.789C346.137 210.37 346.611 210.841 347.192 210.844ZM355.724 195.808C356.318 195.812 356.806 195.325 356.8 194.736C356.794 194.162 356.311 193.675 355.741 193.668C355.155 193.661 354.671 194.152 354.673 194.75C354.676 195.34 355.137 195.805 355.724 195.808ZM365.324 204.394C365.317 203.804 364.852 203.343 364.266 203.343C363.675 203.343 363.186 203.837 363.197 204.424C363.208 205.002 363.692 205.481 364.264 205.482C364.855 205.483 365.33 204.995 365.324 204.394Z" fill="black" fill-opacity="0.7"/>
</svg>
